%YAML 1.1
%TAG !u! tag:unity3d.com,2011:
--- !u!114 &11400000
MonoBehaviour:
  m_ObjectHideFlags: 0
  m_CorrespondingSourceObject: {fileID: 0}
  m_PrefabInstance: {fileID: 0}
  m_PrefabAsset: {fileID: 0}
  m_GameObject: {fileID: 0}
  m_Enabled: 1
  m_EditorHideFlags: 0
  m_Script: {fileID: 11500000, guid: 53b432f468788c448a2625443abe25a9, type: 3}
  m_Name: Level2
  m_EditorClassIdentifier: 
  _platform:
  - {fileID: -556254623958301728, guid: 929bc277eb7153a419d565ac85decac1, type: 3}
  - {fileID: -556254623958301728, guid: 809dfec80c94fb049a586d7b188c52fa, type: 3}
  _levelCount: 30
  _levelTime: 30
  _starTimeBonus: 2
